id,key,nub_key,name_key,taxon_id,source_taxon_key,kingdom,phylum,order,family,genus,species,kingdom_key,phylum_key,class_key,order_key,family_key,genus_key,species_key,dataset_key,constituent_key,parent_key,parent,accepted_key,accepted,basionym_key,basionym,scientific_name,canonical_name,vernacular_name,authorship,name_type,rank,origin,taxonomic_status,published_in,num_descendants,synonym,class,carbon,icu,air,biodiversity,allergenic_score,vulnerability,growth_category
57888,,,,,,,,,,,,,,,,,,,,,,,,,,,,,Conifere indetermine,,,,,,,,,,,,,,,,
57889,,,,,,,,,,Acer,,,,,,,,,,,,,,,,,,Acer,Erable,,,,,,,,,,,,,,,,
57890,,,,,,,,,,Abies,,,,,,,,,,,,,,,,,,Abies,Sapin,,,,,,,,,,,,,,,,
57891,,,,,,,,,,Abies,,,,,,,,,,,,,,,,,,Abies pungens,Epicea bleu du Colorado,,,,,,,,,,,,,,,,
57892,,,,,,,,,,Acacia,,,,,,,,,,,,,,,,,,Acacia,Acacia,,,,,,,,,,,,,,,,
57893,,,,,,,,,,Acer,,,,,,,,,,,,,,,,,,Acer 'Warrenred' PACIFIC SUNSET,Erable Pacific Sunset,,,,,,,,,,,,,,,,
57894,,,,,,,,,,Acer,,,,,,,,,,,,,,,,,,Acer campestre 'Huibers Elegant',Erable champetre Huibers Elegant,,,,,,,,,,,,,,,,
57895,,,,,,,,,,Alnus,,,,,,,,,,,,,,,,,,Alnus,Aulne,,,,,,,,,,,,,,,,
57896,,,,,,,,,,Acer,,,,,,,,,,,,,,,,,,Acer campestre 'Elsrijk',Erable champetre Elsrijk,,,,,,,,,,,,,,,,
57897,,,,,,,,,,Acer,,,,,,,,,,,,,,,,,,Acer cappadocicum 'Aureum',Erable de Cappadoce dore,,,,,,,,,,,,,,,,
57898,,,,,,,,,,Acer,,,,,,,,,,,,,,,,,,Acer cappadocicum 'Rubrum',Erable de Colchide Rubrum,,,,,,,,,,,,,,,,
57899,,,,,,,,,,Acer,,,,,,,,,,,,,,,,,,Acer negundo 'Variegatum',Erable a feuilles de frene Variegatum,,,,,,,,,,,,,,,,
57900,,,,,,,,,,Acer,,,,,,,,,,,,,,,,,,Acer palmatum 'Atropurpureum',Erable japonais Atropurpureum,,,,,,,,,,,,,,,,
57901,,,,,,,,,,Acer,,,,,,,,,,,,,,,,,,Acer palmatum 'Garnet',Erable japonais Garnet,,,,,,,,,,,,,,,,
57902,,,,,,,,,,Acer,,,,,,,,,,,,,,,,,,Acer platanoides 'Columnare',Erable plane Columnare,,,,,,,,,,,,,,,,
57903,,,,,,,,,,Acer,,,,,,,,,,,,,,,,,,Acer platanoides 'Cleveland',Erable plane Cleveland,,,,,,,,,,,,,,,,
57904,,,,,,,,,,Acer,,,,,,,,,,,,,,,,,,Acer platanoides 'Crimson King',Erable plane Crimson King,,,,,,,,,,,,,,,,
57905,,,,,,,,,,Acer,,,,,,,,,,,,,,,,,,Acer platanoides 'Drummondii',Erable plane Drummondii,,,,,,,,,,,,,,,,
57906,,,,,,,,,,Acer,,,,,,,,,,,,,,,,,,Acer platanoides 'Emerald Queen',Erable plane Emerald Queen,,,,,,,,,,,,,,,,
57907,,,,,,,,,,Acer,,,,,,,,,,,,,,,,,,Acer platanoides 'Globosum',Erable plane Globosum,,,,,,,,,,,,,,,,
57908,,,,,,,,,,Acer,,,,,,,,,,,,,,,,,,Acer platanoides 'Schwedleri',Erable plane Schwedleri,,,,,,,,,,,,,,,,
57909,,,,,,,,,,Acer,,,,,,,,,,,,,,,,,,Acer platanoides 'Summershade',Erable plane Summer Shade,,,,,,,,,,,,,,,,
57910,,,,,,,,,,Acer,,,,,,,,,,,,,,,,,,Acer pseudoplatanus 'Negenia',Erable sycomore Negenia,,,,,,,,,,,,,,,,
57911,,,,,,,,,,Cupressus,,,,,,,,,,,,,,,,,,Cupressus,Cypres,,,,,,,,,,,,,,,,
57912,,,,,,,,,,Acer,,,,,,,,,,,,,,,,,,Acer pseudoplatanus 'Atropurpureum',Erable sycomore Atropurpureum,,,,,,,,,,,,,,,,
57913,,,,,,,,,,Acer,,,,,,,,,,,,,,,,,,Acer pseudoplatanus 'Esk Sunset',Erable sycomore Esk Sunset,,,,,,,,,,,,,,,,
57914,,,,,,,,,,Acer,,,,,,,,,,,,,,,,,,Acer pseudoplatanus 'Leopoldii',Erable sycomore Leopoldii,,,,,,,,,,,,,,,,
57915,,,,,,,,,,Acer,,,,,,,,,,,,,,,,,,Acer pseudoplatanus 'Purpurascens',Erable sycomore Purpurascens,,,,,,,,,,,,,,,,
57916,,,,,,,,,,Acer,,,,,,,,,,,,,,,,,,Acer saccharinum 'Laciniatum Wieri',Erable argente Wieri,,,,,,,,,,,,,,,,
57917,,,,,,,,,,Acer,,,,,,,,,,,,,,,,,,Acer x freemanii 'Armstrong',Erable de Freeman Amstrong,,,,,,,,,,,,,,,,
57918,,,,,,,,,,Acer,,,,,,,,,,,,,,,,,,Acer x freemanii,Erable de Freeman,,,,,,,,,,,,,,,,
57919,,,,,,,,,,Acer,,,,,,,,,,,,,,,,,,Acer tataricum subsp. ginnala,Erable du fleuve Amour,,,,,,,,,,,,,,,,
57920,,,,,,,,,,Acer,,,,,,,,,,,,,,,,,,Acer x freemanii 'Autumn Blaze',Erable de Freeman Autumn Blaze,,,,,,,,,,,,,,,,
57921,,,,,,,,,,Aesculus,,,,,,,,,,,,,,,,,,Aesculus,Marronnier,,,,,,,,,,5.0,,4.333333333,,0.0,2.714285714,Feuillu Croissance rapide
57922,,,,,,,,,,Aesculus,,,,,,,,,,,,,,,,,,Aesculus hippocastanum 'Baumannii',Marronnier d'Inde de Baumann,,,,,,,,,,,,,,,,
57923,,,,,,,,,,Aesculus,,,,,,,,,,,,,,,,,,Aesculus x carnea,Marronnier hybride rouge,,,,,,,,,,,,,,,,
57924,,,,,,,,,,Aesculus,,,,,,,,,,,,,,,,,,Aesculus x carnea 'Briotii',Marronnier hybride rouge Briotii,,,,,,,,,,,,,,,,
57925,,,,,,,,,,Albizia,,,,,,,,,,,,,,,,,,Albizia julibrissin 'Boubri' OMBRELLA,Arbre a soie Ombrella,,,,,,,,,,,,,,,,
57926,,,,,,,,,,Alnus,,,,,,,,,,,,,,,,,,Alnus glutinosa 'Imperialis',Aulne glutineux Imperialis,,,,,,,,,,,,,,,,
57927,,,,,,,,,,Alnus,,,,,,,,,,,,,,,,,,Alnus x spaethii,Aulne de Spaeth,,,,,,,,,,5.0,,4.666666667,2.25,2.0,1.571428571,Feuillu Croissance rapide
57928,,,,,,,,,,Amelanchier,,,,,,,,,,,,,,,,,,Amelanchier,Amelanchier,,,,,,,,,,,,,,,,
57929,,,,,,,,,,Amelanchier,,,,,,,,,,,,,,,,,,Amelanchier lamarckii,Amelanchier de Lamarck,,,,,,,,,,2.810290935,,,,0.0,0.0,Feuillu Croissance moyenne
57930,,,,,,,,,,Amelanchier,,,,,,,,,,,,,,,,,,Amelanchier ovalis,Amelanchier des bois,,,,,,,,,,2.810290935,,,,0.0,0.0,Feuillu Croissance moyenne
57931,,,,,,,,,,Aronia,,,,,,,,,,,,,,,,,,Aronia melanocarpa,Aronia a fruits noirs,,,,,,,,,,,,,,,,
57932,,,,,,,,,,Betula,,,,,,,,,,,,,,,,,,Betula pendula 'Laciniata',Bouleau blanc a feuilles decoupees,,,,,,,,,,,,,,,,
57933,,,,,,,,,,Betula,,,,,,,,,,,,,,,,,,Betula pendula 'Tristis',Bouleau blanc retombant,,,,,,,,,,,,,,,,
57934,,,,,,,,,,Betula,,,,,,,,,,,,,,,,,,Betula pendula 'Youngii',Bouleau blanc Youngii,,,,,,,,,,,,,,,,
57935,,,,,,,,,,Betula,,,,,,,,,,,,,,,,,,Betula pendula subsp. mandshurica,Bouleau de Mandchourie,,,,,,,,,,,,,,,,
57936,,,,,,,,,,Betula,,,,,,,,,,,,,,,,,,Betula utilis 'Doorenbos',Bouleau de l'Himalaya Doorenbos,,,,,,,,,,,,,,,,
57937,,,,,,,,,,Betula,,,,,,,,,,,,,,,,,,Betula utilis subsp. jacquemontii,Bouleau blanc de l'Himalaya,,,,,,,,,,,,,,,,
57938,,,,,,,,,,Buddleja,,,,,,,,,,,,,,,,,,Buddleja davidii,Arbre aux papillons du pere David,,,,,,,,,,,,,,,,
57939,,,,,,,,,,Calalpa,,,,,,,,,,,,,,,,,,Calalpa bignonioides,Catalpa commun,,,,,,,,,,,,,,,,
57940,,,,,,,,,,Carpinus,,,,,,,,,,,,,,,,,,Carpinus,Charmille,,,,,,,,,,,,,,,,
57941,,,,,,,,,,Carpinus,,,,,,,,,,,,,,,,,,Carpinus betulus 'Fastigiata',Charme fastigie,,,,,,,,,,,,,,,,
57942,,,,,,,,,,Carpinus,,,,,,,,,,,,,,,,,,Carpinus betulus 'Frans Fontaine',Charme commun Frans Fontaine,,,,,,,,,,,,,,,,
57943,,,,,,,,,,Carpinus,,,,,,,,,,,,,,,,,,Carpinus betulus 'Columnaris',Charme commun Columnaris,,,,,,,,,,,,,,,,
57944,,,,,,,,,,Catalpa,,,,,,,,,,,,,,,,,,Catalpa,Catalpa,,,,,,,,,,,,,,,,
57945,,,,,,,,,,Cedrus,,,,,,,,,,,,,,,,,,Cedrus deodara 'Aurea',Cedre de l'Himalaya Aurea,,,,,,,,,,,,,,,,
57946,,,,,,,,,,Cedrus,,,,,,,,,,,,,,,,,,Cedrus deodara 'Pendula',Cedre de l'Himalaya Pendula,,,,,,,,,,,,,,,,
57947,,,,,,,,,,Cedrus,,,,,,,,,,,,,,,,,,Cedrus libani 'Glauca',Cedre du Liban Glauca,,,,,,,,,,,,,,,,
57948,,,,,,,,,,Catalpa,,,,,,,,,,,,,,,,,,Catalpa bignonioides 'Aurea',Catalpa commun Aurea,,,,,,,,,,,,,,,,
57949,,,,,,,,,,Catalpa,,,,,,,,,,,,,,,,,,Catalpa bignonioides 'Nana',Catalpa bungei des pepinieristes,,,,,,,,,,,,,,,,
57950,,,,,,,,,,Cedrus,,,,,,,,,,,,,,,,,,Cedrus,Cedre,,,,,,,,,,,,,,,,
57951,,,,,,,,,,Cedrus,,,,,,,,,,,,,,,,,,Cedrus atlantica 'Fastigiata',Cedre de l'Atlas fastigie,,,,,,,,,,,,,,,,
57952,,,,,,,,,,Cedrus,,,,,,,,,,,,,,,,,,Cedrus atlantica 'Glauca',Cedre bleu de l'Atlas,,,,,,,,,,,,,,,,
57953,,,,,,,,,,Cedrus,,,,,,,,,,,,,,,,,,Cedrus atlantica 'Glauca Pendula',Cedre bleu de l'Atlas pleureur,,,,,,,,,,,,,,,,
57954,,,,,,,,,,Cedrus,,,,,,,,,,,,,,,,,,Cedrus atlantica 'Glauca Pyramidalis',Cedre bleu de l'Atlas pyramidal,,,,,,,,,,,,,,,,
57955,,,,,,,,,,Cedrus,,,,,,,,,,,,,,,,,,Cedrus atlantica 'Pendula',Cedre de l'Atlas pleureur,,,,,,,,,,,,,,,,
57956,,,,,,,,,,Citrus,,,,,,,,,,,,,,,,,,Citrus x limon,Bergamotier,,,,,,,,,,,,,,,,
57957,,,,,,,,,,Continus,,,,,,,,,,,,,,,,,,Continus coggygria,Arbre a perruques,,,,,,,,,,,,,,,,
57958,,,,,,,,,,Cornus,,,,,,,,,,,,,,,,,,Cornus,Cornouiller,,,,,,,,,,,,,,,,
57959,,,,,,,,,,Cornus,,,,,,,,,,,,,,,,,,Cornus controversa 'Variegata',Cornouiller des pagodes Variegata,,,,,,,,,,,,,,,,
57960,,,,,,,,,,Cornus,,,,,,,,,,,,,,,,,,Cornus kousa chinensis 'Nicole',Cornouiller du Japon,,,,,,,,,,,,,,,,
57961,,,,,,,,,,Cornus,,,,,,,,,,,,,,,,,,Cornus sanguineum,Cornouiller sanguin,,,,,,,,,,,,,,,,
57962,,,,,,,,,,Cercis,,,,,,,,,,,,,,,,,,Cercis,Gainier,,,,,,,,,,,,,,,,
57963,,,,,,,,,,Cercis,,,,,,,,,,,,,,,,,,Cercis canadensis 'Forest Pansy',Gainier du Canada pourpre Forest Pansy,,,,,,,,,,,,,,,,
57964,,,,,,,,,,Chamaecyparis,,,,,,,,,,,,,,,,,,Chamaecyparis lawsoniana 'Pendula',Cypres de Lawson Pendula,,,,,,,,,,,,,,,,
57965,,,,,,,,,,Corylus,,,,,,,,,,,,,,,,,,Corylus avellana Rotblättrige Zellernuss',Noisetier Rouge de Zeller,,,,,,,,,,,,,,,,
57966,,,,,,,,,,Crataegus,,,,,,,,,,,,,,,,,,Crataegus x lavalleei,Aupebine hybride de Lavallee,,,,,,,,,,,,,,,,
57967,,,,,,,,,,Fraxinus,,,,,,,,,,,,,,,,,,Fraxinus angustifolia 'Raywood',Frene a feuilles etroites Raywood,,,,,,,,,,,,,,,,
57968,,,,,,,,,,Corylus,,,,,,,,,,,,,,,,,,Corylus maxima 'Purpurea',Noisetier pourpre de Lombardie,,,,,,,,,,,,,,,,
57969,,,,,,,,,,Crataegus,,,,,,,,,,,,,,,,,,Crataegus azarolus,Azerolier vrai,,,,,,,,,,,,,,,,
57970,,,,,,,,,,Crataegus,,,,,,,,,,,,,,,,,,Crataegus laevigata 'Paul's Scarlet Hamlet',Aubepine rose Paul's Scarlet Hamlet,,,,,,,,,,,,,,,,
57971,,,,,,,,,,Crataegus,,,,,,,,,,,,,,,,,,Crataegus x lavalleei 'Carrierei',Aupebine hybride de Lavallee Carrierei,,,,,,,,,,,,,,,,
57972,,,,,,,,,,Cupressus,,,,,,,,,,,,,,,,,,Cupressus lawsoniana,Cypres de Lawson,,,,,,,,,,,,,,,,
57973,,,,,,,,,,Cupressus,,,,,,,,,,,,,,,,,,Cupressus sempervirens 'Totem Pole',Cypres d'Italie Totem Pole,,,,,,,,,,,,,,,,
57974,,,,,,,,,,Cupressus,,,,,,,,,,,,,,,,,,Cupressus x leylandii,Cypres de Leyland,,,,,,,,,,,,,,,,
57975,,,,,,,,,,Cydonia,,,,,,,,,,,,,,,,,,Cydonia oblonga 'Bourgeault',Cognassier Bourgeault,,,,,,,,,,,,,,,,
57976,,,,,,,,,,Cydonia,,,,,,,,,,,,,,,,,,Cydonia oblonga 'Champion',Cognassier Champion,,,,,,,,,,,,,,,,
57977,,,,,,,,,,Diospyros,,,,,,,,,,,,,,,,,,Diospyros kaki 'Rojo Brillante',Plaqueminier Rojo Brillante,,,,,,,,,,,,,,,,
57978,,,,,,,,,,Diospyros,,,,,,,,,,,,,,,,,,Diospyros kaki 'Vaniglia',Kaki Vaniglia,,,,,,,,,,,,,,,,
57979,,,,,,,,,,Fagus,,,,,,,,,,,,,,,,,,Fagus,Hetre,,,,,,,,,,,,,,,,
57980,,,,,,,,,,Fagus,,,,,,,,,,,,,,,,,,Fagus sylvatica 'Atropunicea',Hetre pourpre,,,,,,,,,,,,,,,,
57981,,,,,,,,,,Fagus,,,,,,,,,,,,,,,,,,Fagus sylvatica 'Dawyck',Hetre commun Dawyck,,,,,,,,,,,,,,,,
57982,,,,,,,,,,Fagus,,,,,,,,,,,,,,,,,,Fagus sylvatica 'Dawyck Gold',Hetre commun Dawyck Gold,,,,,,,,,,,,,,,,
57983,,,,,,,,,,Fagus,,,,,,,,,,,,,,,,,,Fagus sylvatica 'Dawyck Purple',Hetre commun Dawyck Purple,,,,,,,,,,,,,,,,
57984,,,,,,,,,,Fagus,,,,,,,,,,,,,,,,,,Fagus sylvatica 'Pendula',Hetre commun Pendula,,,,,,,,,,,,,,,,
57985,,,,,,,,,,Fagus,,,,,,,,,,,,,,,,,,Fagus sylvatica 'Purpurea Pendula',Hetre commun Purpurea Pendula,,,,,,,,,,,,,,,,
57986,,,,,,,,,,Ficus,,,,,,,,,,,,,,,,,,Ficus carica 'Brown Turkey',Figuier Brown Turkey,,,,,,,,,,,,,,,,
57987,,,,,,,,,,Ficus,,,,,,,,,,,,,,,,,,Ficus carica 'Dauphine',Figuier Violette Dauphine,,,,,,,,,,,,,,,,
57988,,,,,,,,,,Ficus,,,,,,,,,,,,,,,,,,Ficus carica 'Goutte d'Or',Figuier Goutte d'or,,,,,,,,,,,,,,,,
57989,,,,,,,,,,Ficus,,,,,,,,,,,,,,,,,,Ficus carica 'Marseillaise',Figuier La Marseillaise,,,,,,,,,,,,,,,,
57990,,,,,,,,,,Fontanesia,,,,,,,,,,,,,,,,,,Fontanesia philliraeoides subsp. fortunei,Fontanesie faux-oleastre,,,,,,,,,,,,,,,,
57991,,,,,,,,,,Forsythia,,,,,,,,,,,,,,,,,,Forsythia viridissima,Forsythia,,,,,,,,,,,,,,,,
57992,,,,,,,,,,Fraxinus,,,,,,,,,,,,,,,,,,Fraxinus,Frene,,,,,,,,,,,,,,,,
57993,,,,,,,,,,Fraxinus,,,,,,,,,,,,,,,,,,Fraxinus americana 'Autumn Purple',Frene d'Amerique Autumn Purple,,,,,,,,,,,,,,,,
57994,,,,,,,,,,Fraxinus,,,,,,,,,,,,,,,,,,Fraxinus americana 'Skyline',Frene d'Amerique Skyline,,,,,,,,,,,,,,,,
57995,,,,,,,,,,Fraxinus,,,,,,,,,,,,,,,,,,Fraxinus angustifolia subsp. Oxycarpa,Frene a feuilles etroites oxycarpa,,,,,,,,,,,,,,,,
57996,,,,,,,,,,Fraxinus,,,,,,,,,,,,,,,,,,Fraxinus excelsior 'Altena',Frene commun Altena,,,,,,,,,,,,,,,,
57997,,,,,,,,,,Fraxinus,,,,,,,,,,,,,,,,,,Fraxinus excelsior 'Nana',Frene boule,,,,,,,,,,,,,,,,
57998,,,,,,,,,,Fraxinus,,,,,,,,,,,,,,,,,,Fraxinus excelsior 'Pendula',Frene commun Pendula,,,,,,,,,,,,,,,,
57999,,,,,,,,,,Fraxinus,,,,,,,,,,,,,,,,,,Fraxinus pennsylvanica 'Summit',Frene de Pensylvanie Summit,,,,,,,,,,,,,,,,
58000,,,,,,,,,,Fraxinus,,,,,,,,,,,,,,,,,,Fraxinus ornus 'Paus Johannes-Paulus II' OBELISK,Frene a fleurs Obelisk,,,,,,,,,,,,,,,,
58001,,,,,,,,,,Gleditsia,,,,,,,,,,,,,,,,,,Gleditsia triacanthos f. inermis,Fevier d'Amerique inerme,,,,,,,,,,,,,,,,
58002,,,,,,,,,,Liquidambar,,,,,,,,,,,,,,,,,,Liquidambar,Copalme,,,,,,,,,,,,,,,,
58003,,,,,,,,,,Ginkgo,,,,,,,,,,,,,,,,,,Ginkgo biloba 'Fastigiata',Ginkgo biloba fastigie,,,,,,,,,,,,,,,,
58004,,,,,,,,,,Gleditsia,,,,,,,,,,,,,,,,,,Gleditsia triacanthos 'Rubylace',Fevier d'Amerique Ruby Lace,,,,,,,,,,,,,,,,
58005,,,,,,,,,,Gleditsia,,,,,,,,,,,,,,,,,,Gleditsia triacanthos 'Sunburst',Fevier d'Amerique Sunburst,,,,,,,,,,5.0,4.011111111,4.666666667,,0.0,0.0,Feuillu Croissance rapide
58006,,,,,,,,,,Ilex,,,,,,,,,,,,,,,,,,Ilex x koehneana Chestnut Leaf',Houx hybride a feuilles de chataignier,,,,,,,,,,,,,,,,
58007,,,,,,,,,,Malus,,,,,,,,,,,,,,,,,,Malus,Pommier,,,,,,,,,,2.810290936,,4.666666667,3.25,0.0,1.571428571,Feuillu Croissance moyenne
58008,,,,,,,,,,Juglans,,,,,,,,,,,,,,,,,,Juglans regia 'Corne du Périgord',Noyer Corne du Perigord,,,,,,,,,,,,,,,,
58009,,,,,,,,,,Juglans,,,,,,,,,,,,,,,,,,Juglans regia 'Franquette',Noyer Franquette,,,,,,,,,,,,,,,,
58010,,,,,,,,,,Juglans,,,,,,,,,,,,,,,,,,Juglans regia 'Grandjean',Noyer Grandjean,,,,,,,,,,,,,,,,
58011,,,,,,,,,,Juglans,,,,,,,,,,,,,,,,,,Juglans regia 'Mayette',Noyer Mayette,,,,,,,,,,,,,,,,
58012,,,,,,,,,,Juglans,,,,,,,,,,,,,,,,,,Juglans regia 'Parisienne',Noyer Parisienne,,,,,,,,,,,,,,,,
58013,,,,,,,,,,Juniperus,,,,,,,,,,,,,,,,,,Juniperus,Genevrier,,,,,,,,,,,,,,,,
58014,,,,,,,,,,Juniperus,,,,,,,,,,,,,,,,,,Juniperus communis 'Hibernica',Genevrier commun Hibernica,,,,,,,,,,,,,,,,
58015,,,,,,,,,,Juniperus,,,,,,,,,,,,,,,,,,Juniperus virgiana,Genevrier de Virginie,,,,,,,,,,,,,,,,
58016,,,,,,,,,,Laburnum,,,,,,,,,,,,,,,,,,Laburnum,Cytise,,,,,,,,,,,,,,,,
58017,,,,,,,,,,Laburnum,,,,,,,,,,,,,,,,,,Laburnum x watereri 'Vossii',Cytise hybride de Voss,,,,,,,,,,,,,,,,
58018,,,,,,,,,,Ligustrum,,,,,,,,,,,,,,,,,,Ligustrum vulgare,Troene commun,,,,,,,,,,2.810290935,,,3.0,3.0,0.0,Feuillu Croissance moyenne
58019,,,,,,,,,,Liriodendron,,,,,,,,,,,,,,,,,,Liriodendron,Tulipier,,,,,,,,,,,,,,,,
58020,,,,,,,,,,Liriodendron,,,,,,,,,,,,,,,,,,Liriodendron tulipifera 'Aureomarginatum',Tulipier de Virginie Aureomarginatum,,,,,,,,,,,,,,,,
58021,,,,,,,,,,Magnolia,,,,,,,,,,,,,,,,,,Magnolia,Magnolia,,,,,,,,,,,,,,,,
58022,,,,,,,,,,Magnolia,,,,,,,,,,,,,,,,,,Magnolia 'Star Wars',Magnolia hybride Star Wars,,,,,,,,,,,,,,,,
58023,,,,,,,,,,Malus,,,,,,,,,,,,,,,,,,Malus domestica 'Calville Rouge d'Hiver',Pommier Calville Rouge d'hiver,,,,,,,,,,,,,,,,
58024,,,,,,,,,,Malus,,,,,,,,,,,,,,,,,,Malus domestica 'Court Pendu',Pommier Court Pendu,,,,,,,,,,,,,,,,
58025,,,,,,,,,,Malus,,,,,,,,,,,,,,,,,,Malus domestica 'Court Pendu Gris',Pommier Court Pendu Gris,,,,,,,,,,,,,,,,
58026,,,,,,,,,,Malus,,,,,,,,,,,,,,,,,,Malus domestica 'Court Pendu Rouge',Pommier Court Pendu Rouge,,,,,,,,,,,,,,,,
58027,,,,,,,,,,Malus,,,,,,,,,,,,,,,,,,Malus domestica 'Grand Alexandre',Pommier Grand Alexandre,,,,,,,,,,,,,,,,
58028,,,,,,,,,,Malus,,,,,,,,,,,,,,,,,,Malus domestica 'Gros Locard',Pommier a cidre Gros Locard,,,,,,,,,,,,,,,,
58029,,,,,,,,,,Malus,,,,,,,,,,,,,,,,,,Malus domestica 'Jonagold',Pommier Jonagold,,,,,,,,,,,,,,,,
58030,,,,,,,,,,Malus,,,,,,,,,,,,,,,,,,Malus domestica 'Peasgood's Nonsuch' SANS PAREILLE,Pommier Sans pareille de Peasgood,,,,,,,,,,,,,,,,
58031,,,,,,,,,,Malus,,,,,,,,,,,,,,,,,,Malus domestica 'Reinette Grise du Canada',Pommier Reinette Grise du Canada,,,,,,,,,,,,,,,,
58032,,,,,,,,,,Malus,,,,,,,,,,,,,,,,,,Malus domestica 'Transparente de Croncels',Pommier Transparente de Croncels,,,,,,,,,,,,,,,,
58033,,,,,,,,,,Magnolia,,,,,,,,,,,,,,,,,,Magnolia liliiflora 'Nigra',Magnolia a fleurs de lys Nigra,,,,,,,,,,,,,,,,
58034,,,,,,,,,,Magnolia,,,,,,,,,,,,,,,,,,Magnolia x soulangeana,Magnolia hybride de Soulange,,,,,,,,,,,,,,,,
58035,,,,,,,,,,Malus,,,,,,,,,,,,,,,,,,Malus 'Courtarou' COCCINELLA,Pommier d'ornement Coccinella,,,,,,,,,,,,,,,,
58036,,,,,,,,,,Malus,,,,,,,,,,,,,,,,,,Malus 'D.V.P. Obel' RED OBELISK,Pommier d'ornement Red Obelisk,,,,,,,,,,,,,,,,
58037,,,,,,,,,,Malus,,,,,,,,,,,,,,,,,,Malus 'Evereste' PERPETU,Pommier a fleurs Evereste,,,,,,,,,,,,,,,,
58038,,,,,,,,,,Malus,,,,,,,,,,,,,,,,,,Malus 'John Downie',Pommier d'ornement John Downie,,,,,,,,,,,,,,,,
58039,,,,,,,,,,Malus,,,,,,,,,,,,,,,,,,Malus 'Red Sentinel',Pommier d'ornement erige Red Sentinel,,,,,,,,,,,,,,,,
58040,,,,,,,,,,Malus,,,,,,,,,,,,,,,,,,Malus 'Van Eseltine',Pommier d'ornement Van Eseltine,,,,,,,,,,,,,,,,
58041,,,,,,,,,,Malus,,,,,,,,,,,,,,,,,,Malus domestica 'Api Rose',Pommier Api Rose,,,,,,,,,,,,,,,,
58042,,,,,,,,,,Malus,,,,,,,,,,,,,,,,,,Malus domestica 'Astrachan Rouge',Pommier Astrachan Rouge,,,,,,,,,,,,,,,,
58043,,,,,,,,,,Malus,,,,,,,,,,,,,,,,,,Malus domestica 'Astrakan Rouge',Pommier 'Astrakan Rouge',,,,,,,,,,,,,,,,
58044,,,,,,,,,,Malus,,,,,,,,,,,,,,,,,,Malus domestica 'Baumann's Reinette',Pommier Reinette Bauman,,,,,,,,,,,,,,,,
58045,,,,,,,,,,Malus,,,,,,,,,,,,,,,,,,Malus domestica 'Belle Fille de Salins',Pommier Belle Fille de Salins,,,,,,,,,,,,,,,,
58046,,,,,,,,,,Malus,,,,,,,,,,,,,,,,,,Malus x zumi 'Professor Sprenger',Pommetier d'ornement Professeur Sprenger,,,,,,,,,,,,,,,,
58047,,,,,,,,,,Mespilus,,,,,,,,,,,,,,,,,,Mespilus,Neflier,,,,,,,,,,,,,,,,
58048,,,,,,,,,,Morus,,,,,,,,,,,,,,,,,,Morus,Murier,,,,,,,,,,,,,,,,
58049,,,,,,,,,,Morus,,,,,,,,,,,,,,,,,,Morus alba 'Fruitless',Murier blanc sterile,,,,,,,,,,,,,,,,
58050,,,,,,,,,,Morus,,,,,,,,,,,,,,,,,,Morus alba 'Macrophylla',Murier blanc Macrophylla,,,,,,,,,,,,,,,,
58051,,,,,,,,,,Morus,,,,,,,,,,,,,,,,,,Morus australis,Murier austral,,,,,,,,,,,,,,,,
58052,,,,,,,,,,Photinia,,,,,,,,,,,,,,,,,,Photinia,Photinia,,,,,,,,,,,,,,,,
58053,,,,,,,,,,Photinia,,,,,,,,,,,,,,,,,,Photinia x fraseri 'Red Robin',Photinia hybride Red Robin,,,,,,,,,,,,,,,,
58054,,,,,,,,,,Picea,,,,,,,,,,,,,,,,,,Picea,Epicea,,,,,,,,,,,,,,,,
58055,,,,,,,,,,Picea,,,,,,,,,,,,,,,,,,Picea glauca var. albertiana 'Conica',Epicea blanc Conica,,,,,,,,,,,,,,,,
58056,,,,,,,,,,Picea,,,,,,,,,,,,,,,,,,Picea pungens 'Pendula',Epicea bleu du Colorado Pendula,,,,,,,,,,,,,,,,
58057,,,,,,,,,,Pinus,,,,,,,,,,,,,,,,,,Pinus nigra subsp. nigra,Pin noir d'Autriche,,,,,,,,,,,,,,,,
58058,,,,,,,,,,Pinus,,,,,,,,,,,,,,,,,,Pinus nigra subsp. laricio,Pin laricio,,,,,,,,,,,,,,,,
58059,,,,,,,,,,Platanus,,,,,,,,,,,,,,,,,,Platanus x hispanica,Platane a feuilles d'erable,,,,,,,,,,2.8,5.0,3.666666667,,3.0,2.714285714,Feuillu Croissance moyenne
58060,,,,,,,,,,Platanus,,,,,,,,,,,,,,,,,,Platanus orientalis 'Digitata',Platane d'Orient digite,,,,,,,,,,,,,,,,
58061,,,,,,,,,,Populus,,,,,,,,,,,,,,,,,,Populus alba 'Nivea',Peuplier blanc Nivea,,,,,,,,,,,,,,,,
58062,,,,,,,,,,Populus,,,,,,,,,,,,,,,,,,Populus,Peuplier,,,,,,,,,,2.8,,3.666666667,2.0,4.0,0.785714286,Feuillu Croissance moyenne
58063,,,,,,,,,,Populus,,,,,,,,,,,,,,,,,,Populus alba 'Pyramidalis',Peuplier blanc Pyramidalis,,,,,,,,,,,,,,,,
58064,,,,,,,,,,Populus,,,,,,,,,,,,,,,,,,Populus nigra 'Italica',Peuplier noir Italica,,,,,,,,,,,,,,,,
58065,,,,,,,,,,Populus,,,,,,,,,,,,,,,,,,Populus x canescens,Peuplier grisard,,,,,,,,,,,,,,,,
58066,,,,,,,,,,Prunus,,,,,,,,,,,,,,,,,,Prunus,Cerisier,,,,,,,,,,2.8,,4.666666667,4.125,0.0,1.5,Feuillu Croissance moyenne
58067,,,,,,,,,,Prunus,,,,,,,,,,,,,,,,,,Prunus amygdalus,Amandier varie,,,,,,,,,,,,,,,,
58068,,,,,,,,,,Prunus,,,,,,,,,,,,,,,,,,Prunus armeniaca 'Aprikose von Nancy',Abricotier Aprikose von Nancy,,,,,,,,,,,,,,,,
58069,,,,,,,,,,Prunus,,,,,,,,,,,,,,,,,,Prunus armeniaca 'Bergeron',Abricotier Bergeron,,,,,,,,,,,,,,,,
58070,,,,,,,,,,Prunus,,,,,,,,,,,,,,,,,,Prunus armeniaca 'Paviot',Abricotier Paviot,,,,,,,,,,,,,,,,
58071,,,,,,,,,,Prunus,,,,,,,,,,,,,,,,,,Prunus armeniaca 'Polonais',Abricotier Polonais,,,,,,,,,,,,,,,,
58072,,,,,,,,,,Prunus,,,,,,,,,,,,,,,,,,Prunus armeniaca 'Rouge du Roussillon',Abricotier Rouge du Roussillon,,,,,,,,,,,,,,,,
58073,,,,,,,,,,Prunus,,,,,,,,,,,,,,,,,,Prunus 'Accolade',Cerisier du Japon Accolade,,,,,,,,,,,,,,,,
58074,,,,,,,,,,Prunus,,,,,,,,,,,,,,,,,,Prunus 'Kiku-shidare-zakura',Cerisier a fleurs Kiku Shidare Zakura,,,,,,,,,,,,,,,,
58075,,,,,,,,,,Prunus,,,,,,,,,,,,,,,,,,Prunus 'Pink Giant',Cerisier a fleurs Pink Giant,,,,,,,,,,,,,,,,
58076,,,,,,,,,,Prunus,,,,,,,,,,,,,,,,,,Prunus avium 'Cœur de Marmotte',Cerisier Coeur de Marmotte,,,,,,,,,,,,,,,,
58077,,,,,,,,,,Prunus,,,,,,,,,,,,,,,,,,Prunus avium 'Gardel' BIGARREAU DE LA SAINT JEAN®,Cerisier Bigarreau de La St Jean,,,,,,,,,,,,,,,,
58078,,,,,,,,,,Prunus,,,,,,,,,,,,,,,,,,Prunus avium 'Hâtif Burlat',Cerisier Burlat,,,,,,,,,,,,,,,,
58079,,,,,,,,,,Prunus,,,,,,,,,,,,,,,,,,Prunus avium 'Plena',Merisier a fleurs doubles,,,,,,,,,,,,,,,,
58080,,,,,,,,,,Prunus,,,,,,,,,,,,,,,,,,Prunus avium Summit',Cerisier Bigarreau Summit,,,,,,,,,,,,,,,,
58081,,,,,,,,,,Prunus,,,,,,,,,,,,,,,,,,Prunus avium Hedelfinger Riesenkirsche' GEANT D'HEDELFINGEN,Cerisier Hedelfingen,,,,,,,,,,,,,,,,
58082,,,,,,,,,,Prunus,,,,,,,,,,,,,,,,,,Prunus cerasifera 'Pissardii',Prunus pourpre de Pissard,,,,,,,,,,,,,,,,
58083,,,,,,,,,,Prunus,,,,,,,,,,,,,,,,,,Prunus cerasifera 'Nigra',Prunus pourpre,,,,,,,,,,,,,,,,
58084,,,,,,,,,,Prunus,,,,,,,,,,,,,,,,,,Prunus incisa 'Yae-Shidare-Fuji-Zakura',Cerisier dentele Yae Shidare Fuji Zakura,,,,,,,,,,,,,,,,
58085,,,,,,,,,,Prunus,,,,,,,,,,,,,,,,,,Prunus cerasus 'Bigarreau Napoléon',Cerisier Napoleon,,,,,,,,,,,,,,,,
58086,,,,,,,,,,Prunus,,,,,,,,,,,,,,,,,,Prunus cerasus 'Montmorency',Cerisier Montmorency,,,,,,,,,,,,,,,,
58087,,,,,,,,,,Prunus,,,,,,,,,,,,,,,,,,Prunus domestica 'Mirabelle de Nancy',Prunier Mirabelle de Nancy,,,,,,,,,,,,,,,,
58088,,,,,,,,,,Prunus,,,,,,,,,,,,,,,,,,Prunus domestica 'Prune d'Agen',Prunier d'Agen,,,,,,,,,,,,,,,,
58089,,,,,,,,,,Prunus,,,,,,,,,,,,,,,,,,Prunus domestica 'Quetsche d'Alsace',Prunier Quetsche d'Alsace,,,,,,,,,,,,,,,,
58090,,,,,,,,,,Prunus,,,,,,,,,,,,,,,,,,Prunus domestica 'Reine Claude d'Oullins',Prunier Reine Claude d'Oullins,,,,,,,,,,,,,,,,
58091,,,,,,,,,,Prunus,,,,,,,,,,,,,,,,,,Prunus dulcis 'Avijor' LAURANNE,Amandier 'Lauranne',,,,,,,,,,,,,,,,
58092,,,,,,,,,,Prunus,,,,,,,,,,,,,,,,,,Prunus dulcis 'Ferragnes',Amandier Ferragnes,,,,,,,,,,,,,,,,
58093,,,,,,,,,,Prunus,,,,,,,,,,,,,,,,,,Prunus dulcis 'Princesse',Amandier Princesse,,,,,,,,,,,,,,,,
58094,,,,,,,,,,Prunus,,,,,,,,,,,,,,,,,,Prunus dulcis Texas,Amandier Texas,,,,,,,,,,,,,,,,
58095,,,,,,,,,,Prunus,,,,,,,,,,,,,,,,,,Prunus fruticosa,Prunier nain,,,,,,,,,,,,,,,,
58096,,,,,,,,,,Prunus,,,,,,,,,,,,,,,,,,Prunus maackii 'Amber Beauty',Cerisier de Mandchourie Amber Beauty,,,,,,,,,,,,,,,,
58097,,,,,,,,,,Prunus,,,,,,,,,,,,,,,,,,Prunus padus 'Colorata',Merisier a grappes Colorata,,,,,,,,,,,,,,,,
58098,,,,,,,,,,Prunus,,,,,,,,,,,,,,,,,,Prunus persica ferbijon' OLYMPIO,Nectarinier Olympio,,,,,,,,,,,,,,,,
58099,,,,,,,,,,Prunus,,,,,,,,,,,,,,,,,,Prunus persica 'Grosse Mignonne',Pecher Mignonne Veloutee,,,,,,,,,,,,,,,,
58100,,,,,,,,,,Prunus,,,,,,,,,,,,,,,,,,Prunus persica 'Incomparable Guilloux',Pecher Incomparable Guilloux,,,,,,,,,,,,,,,,
58101,,,,,,,,,,Prunus,,,,,,,,,,,,,,,,,,Prunus persica 'Sanguine Vineuse',Pecher Sanguine Vineuse,,,,,,,,,,,,,,,,
58102,,,,,,,,,,Prunus,,,,,,,,,,,,,,,,,,Prunus persica 'Zaidrome' ANDROMEDE,Pecher Zaidrome ANDROMEDE,,,,,,,,,,,,,,,,
58103,,,,,,,,,,Prunus,,,,,,,,,,,,,,,,,,Prunus x subhirtella 'Pendula',Cerisier a fleurs pleureur,,,,,,,,,,,,,,,,
58104,,,,,,,,,,Prunus,,,,,,,,,,,,,,,,,,Prunus serrulata 'Fugenzo',Cerisier des collines Fugenzo,,,,,,,,,,,,,,,,
58105,,,,,,,,,,Prunus,,,,,,,,,,,,,,,,,,Prunus serrulata 'Sunset Boulevard',Cerisier du Japon Sunset Boulevard,,,,,,,,,,,,,,,,
58106,,,,,,,,,,Prunus,,,,,,,,,,,,,,,,,,Prunus serrulata 'Amanogawa',Cerisier du Japon Amanogawa,,,,,,,,,,,,,,,,
58107,,,,,,,,,,Prunus,,,,,,,,,,,,,,,,,,Prunus serrulata 'Kanzan',Cerisier des collines Kanzan,,,,,,,,,,,,,,,,
58108,,,,,,,,,,Prunus,,,,,,,,,,,,,,,,,,Prunus x eminens 'Umbraculifera',Cerisier des Steppes Umbraculifera,,,,,,,,,,,,,,,,
58109,,,,,,,,,,Prunus,,,,,,,,,,,,,,,,,,Prunus x subhirtella,Cerisier a fleurs,,,,,,,,,,,,,,,,
58110,,,,,,,,,,Prunus,,,,,,,,,,,,,,,,,,Prunus x subhirtella 'Autumnalis',Cerisier a fleurs d'hiver Autumnalis,,,,,,,,,,,,,,,,
58111,,,,,,,,,,Pyrus,,,,,,,,,,,,,,,,,,Pyrus calleryana 'Fleclocher' REDSPIRE,Poirier a fleurs Redspire,,,,,,,,,,,,,,,,
58112,,,,,,,,,,Pyrus,,,,,,,,,,,,,,,,,,Pyrus calleryana 'Chanticleer',Poirier a fleurs Chanticleer,,,,,,,,,,,,,,,,
58113,,,,,,,,,,Prunus,,,,,,,,,,,,,,,,,,Prunus x yedoensis,Cerisier Yoshino,,,,,,,,,,,,,,,,
58114,,,,,,,,,,Pyrus,,,,,,,,,,,,,,,,,,Pyrus calleryana 'Capital',Poirier d'ornement Capital,,,,,,,,,,,,,,,,
58115,,,,,,,,,,Tilia,,,,,,,,,,,,,,,,,,Tilia,Tilleul,,,,,,,,,,,,,,,,
58116,,,,,,,,,,Pyrus,,,,,,,,,,,,,,,,,,Pyrus communis 'Abate Fetel',Poirier Abate Fetel,,,,,,,,,,,,,,,,
58117,,,,,,,,,,Pyrus,,,,,,,,,,,,,,,,,,Pyrus communis 'Bergamotte Esperen',Poirier Bergamote Esperen,,,,,,,,,,,,,,,,
58118,,,,,,,,,,Pyrus,,,,,,,,,,,,,,,,,,Pyrus communis 'Beurré Clairgeau',Poirier Beurre Clairgeau,,,,,,,,,,,,,,,,
58119,,,,,,,,,,Pyrus,,,,,,,,,,,,,,,,,,Pyrus communis 'Clapp's Favourite',Poirier Clapp's Favourite,,,,,,,,,,,,,,,,
58120,,,,,,,,,,Pyrus,,,,,,,,,,,,,,,,,,Pyrus communis 'Comtesse de Paris',Poirier Comtesse de Paris,,,,,,,,,,,,,,,,
58121,,,,,,,,,,Pyrus,,,,,,,,,,,,,,,,,,Pyrus communis 'De Livre',Poirier De livre,,,,,,,,,,,,,,,,
58122,,,,,,,,,,Pyrus,,,,,,,,,,,,,,,,,,Pyrus communis 'Directeur Hardy',Poirier Directeur Hardy,,,,,,,,,,,,,,,,
58123,,,,,,,,,,Pyrus,,,,,,,,,,,,,,,,,,Pyrus communis 'Duc de Bordeaux',Poirier Duc de Bordeaux,,,,,,,,,,,,,,,,
58124,,,,,,,,,,Pyrus,,,,,,,,,,,,,,,,,,Pyrus communis 'Duchesse Bérerd',Poirier Duchesse Bererd,,,,,,,,,,,,,,,,
58125,,,,,,,,,,Pyrus,,,,,,,,,,,,,,,,,,Pyrus communis 'Duchesse d'Angoulème',Poirier Duchesse d'Angouleme,,,,,,,,,,,,,,,,
58126,,,,,,,,,,Pyrus,,,,,,,,,,,,,,,,,,Pyrus communis 'Gilles-ô-Gilles',Poirier Gilles-o-Gilles,,,,,,,,,,,,,,,,
58127,,,,,,,,,,Pyrus,,,,,,,,,,,,,,,,,,Pyrus communis 'Le Curé',Poirier Le Cure,,,,,,,,,,,,,,,,
58128,,,,,,,,,,Pyrus,,,,,,,,,,,,,,,,,,Pyrus communis 'Lectier' LE LECTIER,Poirier Le Lectier,,,,,,,,,,,,,,,,
58129,,,,,,,,,,Pyrus,,,,,,,,,,,,,,,,,,Pyrus communis 'Marguerite Marillat',Poirier Marguerite Marillat,,,,,,,,,,,,,,,,
58130,,,,,,,,,,Pyrus,,,,,,,,,,,,,,,,,,Pyrus communis 'Sucrée de Montluçon',Poirier Sucree de Montlucon,,,,,,,,,,,,,,,,
58131,,,,,,,,,,Pyrus,,,,,,,,,,,,,,,,,,Pyrus communis subsp. pyraster,Poirier sauvage,,,,,,,,,,,,,,,,
58132,,,,,,,,,,Pyrus,,,,,,,,,,,,,,,,,,Pyrus salicifolia 'Pendula',Poirier a feuilles de saule Pendula,,,,,,,,,,,,,,,,
58133,,,,,,,,,,Quercus,,,,,,,,,,,,,,,,,,Quercus,Chene,,,,,,,,,,,,,,,,
58134,,,,,,,,,,Quercus,,,,,,,,,,,,,,,,,,Quercus robur 'Fastigiata',Chene pedoncule fastigie,,,,,,,,,,,,,,,,
58135,,,,,,,,,,Quercus,,,,,,,,,,,,,,,,,,Quercus rysophylla 'Maya',Chene du Mexique Maya,,,,,,,,,,,,,,,,
58136,,,,,,,,,,Robinia,,,,,,,,,,,,,,,,,,Robinia pseudoacacia 'Casque Rouge',Robinier faux acacia 'Casque Rouge',,,,,,,,,,,,,,,,
58137,,,,,,,,,,Robinia,,,,,,,,,,,,,,,,,,Robinia pseudoacacia 'Sandraudiga',Robinier faux acacia Sandraudiga,,,,,,,,,,,,,,,,
58138,,,,,,,,,,Robinia,,,,,,,,,,,,,,,,,,Robinia pseudoacacia 'Umbraculifera',Robinier Umbraculifera,,,,,,,,,,,,,,,,
58139,,,,,,,,,,Robinia,,,,,,,,,,,,,,,,,,Robinia pseudoacacia 'Unifoliola',Robinier Unifolia,,,,,,,,,,,,,,,,
58140,,,,,,,,,,Salix,,,,,,,,,,,,,,,,,,Salix alba 'Liempde',Saule blanc Liempde,,,,,,,,,,,,,,,,
58141,,,,,,,,,,Salix,,,,,,,,,,,,,,,,,,Salix babylonica var. pekinensis 'Tortuosa',Saule de Babylone tortueux,,,,,,,,,,,,,,,,
58142,,,,,,,,,,Salix,,,,,,,,,,,,,,,,,,Salix babylonica 'Pendula',Saule pleureur (a bois vert),,,,,,,,,,,,,,,,
58143,,,,,,,,,,Robinia,,,,,,,,,,,,,,,,,,Robinia pseudoacacia 'Bessoniana',Robinier faux acacia Bessoniana,,,,,,,,,,,,,,,,
58144,,,,,,,,,,Robinia,,,,,,,,,,,,,,,,,,Robinia pseudoacacia 'Frisia',Robinier faux acacia dore Frisia,,,,,,,,,,,,,,,,
58145,,,,,,,,,,Robinia,,,,,,,,,,,,,,,,,,Robinia x margaretta 'Pink Cascade' CASQUE ROUGE,Robinier Casque Rouge,,,,,,,,,,,,,,,,
58146,,,,,,,,,,Rubus,,,,,,,,,,,,,,,,,,Rubus fruticosus 'Jumbo',Murier Jumbo,,,,,,,,,,,,,,,,
58147,,,,,,,,,,Rubus,,,,,,,,,,,,,,,,,,Rubus x loganobaccus 'Logan' LOGANBERRY,Mure-framboise de Logan Loganberry,,,,,,,,,,,,,,,,
58148,,,,,,,,,,Salix,,,,,,,,,,,,,,,,,,Salix,Saule,,,,,,,,,,,,,,,,
58149,,,,,,,,,,Salix,,,,,,,,,,,,,,,,,,Salix matsudana 'Tortuosa',Saule tortueux,,,,,,,,,,,,,,,,
58150,,,,,,,,,,Salix,,,,,,,,,,,,,,,,,,Salix x sepulcralis 'Chrysocoma',Saule pleureur a bois jaune,,,,,,,,,,,,,,,,
58151,,,,,,,,,,Sambucus,,,,,,,,,,,,,,,,,,Sambucus nigra 'Aurea',Sureau noir Aurea,,,,,,,,,,,,,,,,
58152,,,,,,,,,,Sequoia,,,,,,,,,,,,,,,,,,Sequoia,Sequoia,,,,,,,,,,,,,,,,
58153,,,,,,,,,,Sinomalus,,,,,,,,,,,,,,,,,,Sinomalus sieboldii,Pommier d'ornement japonais,,,,,,,,,,,,,,,,
58154,,,,,,,,,,Sorbus,,,,,,,,,,,,,,,,,,Sorbus,Sorbier,,,,,,,,,,2.810290936,,4.333333333,3.833333333,0.0,1.571428571,Feuillu Croissance moyenne
58155,,,,,,,,,,Sorbus,,,,,,,,,,,,,,,,,,Sorbus aria 'Magnifica',Alouchier Magnifica,,,,,,,,,,,,,,,,
58156,,,,,,,,,,Sorbus,,,,,,,,,,,,,,,,,,Sorbus x thuringiaca,Sorbier de Thuringe,,,,,,,,,,,,,,,,
58157,,,,,,,,,,Styphnolobium,,,,,,,,,,,,,,,,,,Styphnolobium,Sophora,,,,,,,,,,,,,,,,
58158,,,,,,,,,,Styphnolobium,,,,,,,,,,,,,,,,,,Styphnolobium japonicum 'Pendula',Sophora du Japon Pendula,,,,,,,,,,,,,,,,
58159,,,,,,,,,,Tamarix,,,,,,,,,,,,,,,,,,Tamarix ramosissima 'Pink Cascade',Tamaris d'ete Pink Cascade,,,,,,,,,,,,,,,,
58160,,,,,,,,,,Tetradium,,,,,,,,,,,,,,,,,,Tetradium daniellii var. hupehensis,Arbre a miel hupehensis,,,,,,,,,,,,,,,,
58161,,,,,,,,,,Tilia,,,,,,,,,,,,,,,,,,Tilia americana 'Nova',Tilleul d'Amerique Nova,,,,,,,,,,,,,,,,
58162,,,,,,,,,,Tilia,,,,,,,,,,,,,,,,,,Tilia americana 'Redmond',Tilleul d'Amerique Redmond,,,,,,,,,,,,,,,,
58163,,,,,,,,,,Tilia,,,,,,,,,,,,,,,,,,Tilia cordata 'Greenspire',Tilleul a petites feuilles Greenspire,,,,,,,,,,,,,,,,
58164,,,,,,,,,,Tilia,,,,,,,,,,,,,,,,,,Tilia cordata 'Rancho',Tilleul a petites feuilles Rancho,,,,,,,,,,,,,,,,
58165,,,,,,,,,,Tilia,,,,,,,,,,,,,,,,,,Tilia pallida,Tilleul bleme,,,,,,,,,,,,,,,,
58166,,,,,,,,,,Ilex,,,,,,,,,,,,,,,,,,Ilex crenata 'Fastigiata',Houx crenele Fastigiata,,,,,,,,,,,,,,,,
58167,,,,,,,,,,Tilia,,,,,,,,,,,,,,,,,,Tilia platyphyllos 'Delft',Tilleul a grandes feuilles Delft,,,,,,,,,,,,,,,,
58168,,,,,,,,,,Tilia,,,,,,,,,,,,,,,,,,Tilia platyphyllos 'Louisa Life',Tilleul a grandes feuilles Louisa Life,,,,,,,,,,,,,,,,
58169,,,,,,,,,,Tilia,,,,,,,,,,,,,,,,,,Tilia x euchlora,Tilleul de Crimee,,,,,,,,,,,,,,,,
58170,,,,,,,,,,Tilia,,,,,,,,,,,,,,,,,,Tilia tomentosa 'Brabant',Tilleul argente Brabant,,,,,,,,,,,,,,,,
58171,,,,,,,,,,Tilia,,,,,,,,,,,,,,,,,,Tilia tomentosa 'Petiolaris',Tilleul Petiolaris,,,,,,,,,,,,,,,,
58172,,,,,,,,,,Tilia,,,,,,,,,,,,,,,,,,Tilia x flavescens,Tilleul hybride a petites feuilles,,,,,,,,,,,,,,,,
58173,,,,,,,,,,Tilia,,,,,,,,,,,,,,,,,,Tilia x europaea,Tilleul commun,,,,,,,,,,5.0,4.777777778,4.0,2.5,3.0,1.571428571,Feuillu Croissance rapide
58174,,,,,,,,,,Tilia,,,,,,,,,,,,,,,,,,Tilia x flavescens 'Glenleven',Tilleul hybride a petites feuilles Glenleven,,,,,,,,,,,,,,,,
58175,,,,,,,,,,Ulmus,,,,,,,,,,,,,,,,,,Ulmus,Orme,,,,,,,,,,2.8,3.844444444,4.333333333,2.0,5.0,0.0,Feuillu Croissance moyenne
58176,,,,,,,,,,Ulmus,,,,,,,,,,,,,,,,,,Ulmus 'Lobel',Orme hybride Lobel,,,,,,,,,,,,,,,,
58177,,,,,,,,,,Ulmus,,,,,,,,,,,,,,,,,,Ulmus 'Wanoux' VADA,Orme hybride Vada,,,,,,,,,,,,,,,,
58178,,,,,,,,,,Ulmus,,,,,,,,,,,,,,,,,,Ulmus glabra 'Pendula',Orme de montagne pleureur,,,,,,,,,,,,,,,,
58179,,,,,,,,,,Ulmus,,,,,,,,,,,,,,,,,,Ulmus resista 'New Horizon',Orme hybride New Horizon,,,,,,,,,,,,,,,,
58180,,,,,,,,,,Ulmus,,,,,,,,,,,,,,,,,,Ulmus resista 'Sapporo Autumn Gold',Orme resistant Sapporo Autumn Gold,,,,,,,,,,,,,,,,
58181,,,,,,,,,,Viburnum,,,,,,,,,,,,,,,,,,Viburnum opulus,Viorne obier,,,,,,,,,,2.810290935,,,3.25,0.0,0.0,Feuillu Croissance moyenne
58182,,,,,,,,,,Viburnum,,,,,,,,,,,,,,,,,,Viburnum opulus 'Roseum',Viorne obier Roseum,,,,,,,,,,,,,,,,
58183,,,,,,,,,,Vitis,,,,,,,,,,,,,,,,,,Vitis 'Alphonse Lavallée',Vigne Alphonse Lavallee,,,,,,,,,,,,,,,,
58184,,,,,,,,,,Vitis,,,,,,,,,,,,,,,,,,Vitis 'Bianca',Vigne Bianca,,,,,,,,,,,,,,,,
58185,,,,,,,,,,Vitis,,,,,,,,,,,,,,,,,,Vitis 'Chasselas doré de Fontainebleau',Vigne Chasselas Dore de Fontainebleau,,,,,,,,,,,,,,,,
58186,,,,,,,,,,Vitis,,,,,,,,,,,,,,,,,,Vitis vinifera 'Muscat Hamburg',Vigne Muscat de Hambourg,,,,,,,,,,,,,,,,
58187,,,,,,,,,,Xanthocyparis,,,,,,,,,,,,,,,,,,Xanthocyparis nootkatensis,Cypres de Nootka,,,,,,,,,,,,,,,,
58188,,,,,,,,,,Xanthocyparis,,,,,,,,,,,,,,,,,,Xanthocyparis nootkatensis 'Pendula',Cypres de Nootka Pendula,,,,,,,,,,,,,,,,
58189,,,,,,,,,,Zanthoxylum,,,,,,,,,,,,,,,,,,Zanthoxylum simulans,Poivrier de Sichuan,,,,,,,,,,,,,,,,
58190,,,,,,,,,,Zelkova,,,,,,,,,,,,,,,,,,Zelkova,Faux-orme,,,,,,,,,,,,,,,,
58191,,,,,,,,,,Zelkova,,,,,,,,,,,,,,,,,,Zelkova serrata 'Flekova' GREEN VASE,Faux-orme du Japon Green Vase,,,,,,,,,,,,,,,,
