id,carbon,icu,air,biodiversity,allergenic_score,vulnerability,growth_category
57921,5.0,NULL,4.333333333,NULL,0.0,2.714285714,Feuillu Croissance rapide
57927,5.0,NULL,4.666666667,2.25,2.0,1.571428571,Feuillu Croissance rapide
57929,2.810290935,NULL,NULL,NULL,0.0,0.0,Feuillu Croissance moyenne
57930,2.810290935,NULL,NULL,NULL,0.0,0.0,Feuillu Croissance moyenne
58005,5.0,4.011111111,4.666666667,NULL,0.0,0.0,Feuillu Croissance rapide
58007,2.810290936,NULL,4.666666667,3.25,0.0,1.571428571,Feuillu Croissance moyenne
58018,2.810290935,NULL,NULL,3.0,3.0,0.0,Feuillu Croissance moyenne
58059,2.8,5.0,3.666666667,NULL,3.0,2.714285714,Feuillu Croissance moyenne
58062,2.8,NULL,3.666666667,2.0,4.0,0.785714286,Feuillu Croissance moyenne
58066,2.8,NULL,4.666666667,4.125,0.0,1.5,Feuillu Croissance moyenne
58154,2.810290936,NULL,4.333333333,3.833333333,0.0,1.571428571,Feuillu Croissance moyenne
58173,5.0,4.777777778,4.0,2.5,3.0,1.571428571,Feuillu Croissance rapide
58175,2.8,3.844444444,4.333333333,2.0,5.0,0.0,Feuillu Croissance moyenne
58181,2.810290935,NULL,NULL,3.25,0.0,0.0,Feuillu Croissance moyenne
