{
  "type": "FeatureCollection",
  "features": [
    {
      "type": "Feature",
      "properties": {
        "id": "aa812cb3-afd6-4e70-97ab-0c3f91ce601d",
        "address": "42 Voie la canebiere 13001 Marseille",
        "location_status": {
          "id": "bf6fcfe3-fbe9-4467-98be-a935efcf67a3",
          "status": "alive",
          "color": "[6, 182, 174, 200]",
          "__typename": "location_status"
        },
        "tree": [
          {
            "id": "979549f7-44fe-426e-83f6-c7cff820c44c",
            "serial_number": "XXXX_20230914-152341",
            "scientific_name": "",
            "plantation_date": "",
            "height": "",
            "__typename": "tree"
          }
        ],
        "coords": {
          "type": "Point",
          "crs": {
            "type": "name",
            "properties": {
              "name": "urn:ogc:def:crs:EPSG::4326"
            }
          },
          "coordinates": [5.378097700085838, 43.296429332285044]
        },
        "__typename": "location"
      },
      "geometry": {
        "type": "Point",
        "coordinates": [5.378097700085838, 43.296429332285044]
      }
    },
    {
      "type": "Feature",
      "properties": {
        "id": "9eb3abf7-42da-4bbb-8b60-d5dfb136cb3a",
        "address": "7 Allée leon gambetta 13001 Marseille",
        "location_status": {
          "id": "bf6fcfe3-fbe9-4467-98be-a935efcf67a3",
          "status": "alive",
          "color": "[6, 182, 174, 200]",
          "__typename": "location_status"
        },
        "tree": [
          {
            "id": "deff0158-a9cb-497c-9616-419ac519ce42",
            "serial_number": "Acer_20230914-153035",
            "scientific_name": "Acer campestre",
            "plantation_date": "2023-09-14",
            "height": "12",
            "__typename": "tree"
          }
        ],
        "coords": {
          "type": "Point",
          "crs": {
            "type": "name",
            "properties": {
              "name": "urn:ogc:def:crs:EPSG::4326"
            }
          },
          "coordinates": [5.3814451, 43.29920914]
        },
        "__typename": "location"
      },
      "geometry": {
        "type": "Point",
        "coordinates": [5.3814451, 43.29920914]
      }
    },
    {
      "type": "Feature",
      "properties": {
        "id": "29cfd682-704e-47bc-96cb-ce8fd6f1bc36",
        "address": "38 Rue senac de meilhan 13001 Marseille",
        "location_status": {
          "id": "bf6fcfe3-fbe9-4467-98be-a935efcf67a3",
          "status": "alive",
          "color": "[6, 182, 174, 200]",
          "__typename": "location_status"
        },
        "tree": [
          {
            "id": "ee805c25-ba8b-4cc1-91c2-3dab8a1e548a",
            "serial_number": "Quer_20230918-225331",
            "scientific_name": "Quercus robur",
            "plantation_date": "2023-09-18",
            "height": "23",
            "__typename": "tree"
          }
        ],
        "coords": {
          "type": "Point",
          "crs": {
            "type": "name",
            "properties": {
              "name": "urn:ogc:def:crs:EPSG::4326"
            }
          },
          "coordinates": [5.383591957566669, 43.296915574145885]
        },
        "__typename": "location"
      },
      "geometry": {
        "type": "Point",
        "coordinates": [5.383591957566669, 43.296915574145885]
      }
    },
    {
      "type": "Feature",
      "properties": {
        "id": "b47f3c0d-000f-4f23-8570-f5274ce9d012",
        "address": "8 Rue jean-pierre moustier 13001 Marseille",
        "location_status": {
          "id": "bf6fcfe3-fbe9-4467-98be-a935efcf67a3",
          "status": "alive",
          "color": "[6, 182, 174, 200]",
          "__typename": "location_status"
        },
        "tree": [
          {
            "id": "9fc4e168-ce60-4b6a-8886-42f1ed9fe390",
            "serial_number": "Quer_20230918-225331",
            "scientific_name": "Quercus robur",
            "plantation_date": "2023-09-18",
            "height": "23",
            "__typename": "tree"
          }
        ],
        "coords": {
          "type": "Point",
          "crs": {
            "type": "name",
            "properties": {
              "name": "urn:ogc:def:crs:EPSG::4326"
            }
          },
          "coordinates": [5.37997511010121, 43.29393000058359]
        },
        "__typename": "location"
      },
      "geometry": {
        "type": "Point",
        "coordinates": [5.37997511010121, 43.29393000058359]
      }
    },
    {
      "type": "Feature",
      "properties": {
        "id": "208ed0e4-9f34-42c7-ac56-5f2a93510bd4",
        "address": "35 Rue terrusse 13005 Marseille",
        "location_status": {
          "id": "bf6fcfe3-fbe9-4467-98be-a935efcf67a3",
          "status": "alive",
          "color": "[6, 182, 174, 200]",
          "__typename": "location_status"
        },
        "tree": [
          {
            "id": "9f7c9c2f-115c-4e56-ae8b-0987f64c9e4b",
            "serial_number": "Quer_20230918-225331",
            "scientific_name": "Quercus robur",
            "plantation_date": "2023-09-18",
            "height": "23",
            "__typename": "tree"
          }
        ],
        "coords": {
          "type": "Point",
          "crs": {
            "type": "name",
            "properties": {
              "name": "urn:ogc:def:crs:EPSG::4326"
            }
          },
          "coordinates": [5.389017228764679, 43.29643403993741]
        },
        "__typename": "location"
      },
      "geometry": {
        "type": "Point",
        "coordinates": [5.389017228764679, 43.29643403993741]
      }
    },
    {
      "type": "Feature",
      "properties": {
        "id": "b1c70952-ea26-416c-a02f-fc981aa76efe",
        "address": "5 Rue francis davso 13001 Marseille",
        "location_status": {
          "id": "bf6fcfe3-fbe9-4467-98be-a935efcf67a3",
          "status": "alive",
          "color": "[6, 182, 174, 200]",
          "__typename": "location_status"
        },
        "tree": [
          {
            "id": "09b39953-377b-4cb1-9b31-fcfbfd1d992e",
            "serial_number": "Quer_20230918-225331",
            "scientific_name": "Quercus robur",
            "plantation_date": "2023-09-18",
            "height": "23",
            "__typename": "tree"
          }
        ],
        "coords": {
          "type": "Point",
          "crs": {
            "type": "name",
            "properties": {
              "name": "urn:ogc:def:crs:EPSG::4326"
            }
          },
          "coordinates": [5.378872412703268, 43.29360896244017]
        },
        "__typename": "location"
      },
      "geometry": {
        "type": "Point",
        "coordinates": [5.378872412703268, 43.29360896244017]
      }
    }
  ]
}
